<svg width="90" height="90" viewBox="0 0 90 90" fill="none" xmlns="http://www.w3.org/2000/svg">
<g clip-path="url(#clip0)">
<path d="M34.2 1.31485L35.2125 5.40704C31.2295 6.38657 27.4177 7.963 23.9063 10.0828L21.7406 6.46876C25.6102 4.13251 29.8108 2.39489 34.2 1.31485ZM55.8 1.31485L54.7875 5.40704C58.7705 6.38657 62.5824 7.963 66.0938 10.0828L68.2734 6.46876C64.3995 4.1312 60.1941 2.39355 55.8 1.31485ZM6.46876 21.7406C4.13251 25.6102 2.39489 29.8108 1.31485 34.2L5.40704 35.2125C6.38657 31.2295 7.963 27.4177 10.0828 23.9063L6.46876 21.7406ZM4.21876 45C4.2174 42.9547 4.37018 40.9122 4.67579 38.8899L0.506261 38.257C-0.168704 42.727 -0.168704 47.273 0.506261 51.743L4.67579 51.1102C4.37018 49.0878 4.2174 47.0453 4.21876 45ZM68.2594 83.5313L66.0938 79.9172C62.5867 82.0357 58.7797 83.6121 54.8016 84.593L55.8141 88.6852C60.1984 87.6038 64.3942 85.8662 68.2594 83.5313ZM85.7813 45C85.7826 47.0453 85.6298 49.0878 85.3242 51.1102L89.4938 51.743C90.1687 47.273 90.1687 42.727 89.4938 38.257L85.3242 38.8899C85.6298 40.9122 85.7826 42.9547 85.7813 45ZM88.6852 55.8L84.593 54.7875C83.6134 58.7705 82.037 62.5824 79.9172 66.0938L83.5313 68.2735C85.8688 64.3995 87.6065 60.1941 88.6852 55.8ZM51.1102 85.3313C47.0595 85.9407 42.9405 85.9407 38.8899 85.3313L38.257 89.5008C42.727 90.1758 47.273 90.1758 51.743 89.5008L51.1102 85.3313ZM77.8289 69.1945C75.3966 72.4887 72.4837 75.3993 69.1875 77.8289L71.6906 81.225C75.3268 78.5515 78.5408 75.347 81.225 71.7188L77.8289 69.1945ZM69.1875 12.1711C72.4842 14.6029 75.3971 17.5158 77.8289 20.8125L81.225 18.2813C78.5493 14.6551 75.3449 11.4507 71.7188 8.77501L69.1875 12.1711ZM12.1711 20.8125C14.6029 17.5158 17.5158 14.6029 20.8125 12.1711L18.2813 8.77501C14.6551 11.4507 11.4507 14.6551 8.77501 18.2813L12.1711 20.8125ZM83.5313 21.7406L79.9172 23.9063C82.0357 27.4133 83.6121 31.2203 84.593 35.1985L88.6852 34.186C87.6038 29.8016 85.8662 25.6058 83.5313 21.7406ZM38.8899 4.67579C42.9405 4.06637 47.0595 4.06637 51.1102 4.67579L51.743 0.506261C47.273 -0.168704 42.727 -0.168704 38.257 0.506261L38.8899 4.67579ZM14.3367 82.343L5.62501 84.375L7.65704 75.6633L3.55079 74.7L1.51876 83.4117C1.35509 84.1107 1.37247 84.8398 1.56924 85.5301C1.76602 86.2205 2.1357 86.8492 2.64328 87.3567C3.15086 87.8643 3.77957 88.234 4.46991 88.4308C5.16024 88.6276 5.88937 88.6449 6.58829 88.4813L15.293 86.4844L14.3367 82.343ZM4.4297 70.9383L8.53595 71.8945L9.9422 65.8547C7.89248 62.4097 6.36419 58.6802 5.40704 54.7875L1.31485 55.8C2.23223 59.5284 3.62653 63.1228 5.46329 66.4945L4.4297 70.9383ZM24.1172 80.0789L18.0774 81.4852L19.0336 85.5914L23.4774 84.5578C26.8491 86.3946 30.4435 87.7889 34.1719 88.7063L35.1844 84.6141C31.2999 83.6455 27.5799 82.1078 24.1453 80.0508L24.1172 80.0789ZM45 8.43751C38.4673 8.4409 32.0548 10.1945 26.4294 13.5159C20.8041 16.8374 16.1714 21.6053 13.0131 27.3239C9.8549 33.0425 8.28649 39.5028 8.47104 46.0329C8.65559 52.563 10.5863 58.9244 14.0625 64.4555L10.5469 79.4531L25.5445 75.9375C30.3413 78.9587 35.7749 80.8231 41.416 81.3834C47.0571 81.9438 52.7513 81.1848 58.0487 79.1663C63.346 77.1478 68.1015 73.9251 71.9394 69.753C75.7772 65.5808 78.5924 60.5733 80.1624 55.1262C81.7324 49.679 82.0143 43.9414 80.9858 38.3666C79.9573 32.7918 77.6466 27.5325 74.2362 23.0041C70.8258 18.4758 66.4092 14.8025 61.3352 12.2745C56.2612 9.74643 50.6689 8.43285 45 8.43751Z" fill="#3A76F0"/>
</g>
<defs>
<clipPath id="clip0">
<rect width="90" height="90" fill="white"/>
</clipPath>
</defs>
</svg>
