<svg width="16" height="16" viewBox="0 0 16 16" fill="none" xmlns="http://www.w3.org/2000/svg">
<path fill-rule="evenodd" clip-rule="evenodd" d="M8 16C12.4183 16 16 12.4183 16 8C16 3.58173 12.4183 0 8 0C3.58173 0 0 3.58173 0 8C0 12.4183 3.58173 16 8 16ZM5.78156 11.2205L12.6448 4.35884C12.7597 4.24402 12.9459 4.24402 13.0608 4.35884L13.3381 4.63608C13.4529 4.75093 13.4529 4.93712 13.3381 5.05196L5.98956 12.3987C5.87463 12.5135 5.68842 12.5135 5.57355 12.3987L2.66187 9.48773C2.54706 9.37288 2.54706 9.18669 2.66187 9.07187L2.93915 8.79465C3.05408 8.67982 3.2403 8.67982 3.35516 8.79465L5.78156 11.2205Z" fill="white"/>
</svg>
