<svg width="18" height="12" viewBox="0 0 18 12" fill="none" xmlns="http://www.w3.org/2000/svg">
<path d="M0 10H18V12H0V10Z" fill="#A8A8A8"/>
<path d="M0 5H18V7H0V5Z" fill="#A8A8A8"/>
<path d="M0 0H18V2H0V0Z" fill="#A8A8A8"/>
</svg>
