<svg width="18" height="18" viewBox="0 0 18 18" fill="none" xmlns="http://www.w3.org/2000/svg">
<path d="M14.5725 9.735C14.6025 9.495 14.625 9.255 14.625 9C14.625 8.745 14.6025 8.505 14.5725 8.265L16.155 7.0275C16.2975 6.915 16.335 6.7125 16.245 6.5475L14.745 3.9525C14.6775 3.8325 14.55 3.765 14.415 3.765C14.37 3.765 14.325 3.7725 14.2875 3.7875L12.42 4.5375C12.03 4.2375 11.61 3.99 11.1525 3.8025L10.8675 1.815C10.845 1.635 10.6875 1.5 10.5 1.5H7.49999C7.31249 1.5 7.15499 1.635 7.13249 1.815L6.84749 3.8025C6.38999 3.99 5.96999 4.245 5.57999 4.5375L3.71249 3.7875C3.66749 3.7725 3.62249 3.765 3.57749 3.765C3.44999 3.765 3.32249 3.8325 3.25499 3.9525L1.75499 6.5475C1.65749 6.7125 1.70249 6.915 1.84499 7.0275L3.42749 8.265C3.39749 8.505 3.37499 8.7525 3.37499 9C3.37499 9.2475 3.39749 9.495 3.42749 9.735L1.84499 10.9725C1.70249 11.085 1.66499 11.2875 1.75499 11.4525L3.25499 14.0475C3.32249 14.1675 3.44999 14.235 3.58499 14.235C3.62999 14.235 3.67499 14.2275 3.71249 14.2125L5.57999 13.4625C5.96999 13.7625 6.38999 14.01 6.84749 14.1975L7.13249 16.185C7.15499 16.365 7.31249 16.5 7.49999 16.5H10.5C10.6875 16.5 10.845 16.365 10.8675 16.185L11.1525 14.1975C11.61 14.01 12.03 13.755 12.42 13.4625L14.2875 14.2125C14.3325 14.2275 14.3775 14.235 14.4225 14.235C14.55 14.235 14.6775 14.1675 14.745 14.0475L16.245 11.4525C16.335 11.2875 16.2975 11.085 16.155 10.9725L14.5725 9.735V9.735ZM13.0875 8.4525C13.1175 8.685 13.125 8.8425 13.125 9C13.125 9.1575 13.11 9.3225 13.0875 9.5475L12.9825 10.395L13.65 10.92L14.46 11.55L13.935 12.4575L12.9825 12.075L12.2025 11.76L11.5275 12.27C11.205 12.51 10.8975 12.69 10.59 12.8175L9.79499 13.14L9.67499 13.9875L9.52499 15H8.47499L8.33249 13.9875L8.21249 13.14L7.41749 12.8175C7.09499 12.6825 6.79499 12.51 6.49499 12.285L5.81249 11.76L5.01749 12.0825L4.06499 12.465L3.53999 11.5575L4.34999 10.9275L5.01749 10.4025L4.91249 9.555C4.88999 9.3225 4.87499 9.15 4.87499 9C4.87499 8.85 4.88999 8.6775 4.91249 8.4525L5.01749 7.605L4.34999 7.08L3.53999 6.45L4.06499 5.5425L5.01749 5.925L5.79749 6.24L6.47249 5.73C6.79499 5.49 7.10249 5.31 7.40999 5.1825L8.20499 4.86L8.32499 4.0125L8.47499 3H9.51749L9.65999 4.0125L9.77999 4.86L10.575 5.1825C10.8975 5.3175 11.1975 5.49 11.4975 5.715L12.18 6.24L12.975 5.9175L13.9275 5.535L14.4525 6.4425L13.65 7.08L12.9825 7.605L13.0875 8.4525ZM8.99999 6C7.34249 6 5.99999 7.3425 5.99999 9C5.99999 10.6575 7.34249 12 8.99999 12C10.6575 12 12 10.6575 12 9C12 7.3425 10.6575 6 8.99999 6ZM8.99999 10.5C8.17499 10.5 7.49999 9.825 7.49999 9C7.49999 8.175 8.17499 7.5 8.99999 7.5C9.82499 7.5 10.5 8.175 10.5 9C10.5 9.825 9.82499 10.5 8.99999 10.5Z" fill="black"/>
</svg>
