<svg width="44" height="44" viewBox="0 0 44 44" fill="none" xmlns="http://www.w3.org/2000/svg">
<rect width="44" height="44" rx="22" fill="#419FD9"/>
<path fill-rule="evenodd" clip-rule="evenodd" d="M21.6667 13C16.8802 13 13 16.8802 13 21.6667V28.3333C13 29.8061 14.1939 31 15.6667 31H18.3333V30.9723C19.2792 30.8136 20 29.991 20 29V25C20 23.8954 19.1046 23 18 23H15V22C15 18.134 18.134 15 22 15C25.866 15 29 18.134 29 22V23H26C24.8954 23 24 23.8954 24 25V29C24 29.8709 24.5565 30.6117 25.3333 30.8862V31H28.3333C29.8061 31 31 29.8061 31 28.3333V21.6667C31 16.8802 27.1198 13 22.3333 13H21.6667ZM29 26C29 25.4478 28.5523 25 28 25H27C26.4477 25 26 25.4478 26 26V28C26 28.5522 26.4477 29 27 29H28C28.5523 29 29 28.5522 29 28V26ZM15 26V28C15 28.5522 15.4477 29 16 29H17C17.5523 29 18 28.5522 18 28V26C18 25.4478 17.5523 25 17 25H16C15.4477 25 15 25.4478 15 26Z" fill="white"/>
</svg>
