<svg width="18" height="18" viewBox="0 0 18 18" fill="none" xmlns="http://www.w3.org/2000/svg">
<path d="M7.95703 7.45703C8.26172 7.15234 8.61328 7 9.01172 7C9.41016 7 9.76172 7.15234 10.0664 7.45703C10.3711 7.76172 10.5234 8.11328 10.5234 8.51172C10.5234 8.91016 10.3711 9.26172 10.0664 9.56641C9.76172 9.87109 9.41016 10.0234 9.01172 10.0234C8.61328 10.0234 8.26172 9.87109 7.95703 9.56641C7.65234 9.26172 7.5 8.91016 7.5 8.51172C7.5 8.11328 7.65234 7.76172 7.95703 7.45703ZM12.457 7.45703C12.7617 7.15234 13.1133 7 13.5117 7C13.9102 7 14.2617 7.15234 14.5664 7.45703C14.8711 7.76172 15.0234 8.11328 15.0234 8.51172C15.0234 8.91016 14.8711 9.26172 14.5664 9.56641C14.2617 9.87109 13.9102 10.0234 13.5117 10.0234C13.1133 10.0234 12.7617 9.87109 12.457 9.56641C12.1523 9.26172 12 8.91016 12 8.51172C12 8.11328 12.1523 7.76172 12.457 7.45703ZM3.45703 7.45703C3.76172 7.15234 4.11328 7 4.51172 7C4.91016 7 5.26172 7.15234 5.56641 7.45703C5.87109 7.76172 6.02344 8.11328 6.02344 8.51172C6.02344 8.91016 5.87109 9.26172 5.56641 9.56641C5.26172 9.87109 4.91016 10.0234 4.51172 10.0234C4.11328 10.0234 3.76172 9.87109 3.45703 9.56641C3.15234 9.26172 3 8.91016 3 8.51172C3 8.11328 3.15234 7.76172 3.45703 7.45703Z" fill="black"/>
</svg>
