<svg width="11" height="11" viewBox="0 0 11 11" fill="none" xmlns="http://www.w3.org/2000/svg">
<path d="M6.7692 0.567377C7.52765 -0.189126 8.75724 -0.189126 9.51569 0.567377L10.4312 1.48056C11.1896 2.23706 11.1896 3.4636 10.4312 4.2201L8.67869 5.96812C8.61405 6.0326 8.54601 6.09158 8.47513 6.14506L8.23814 10.1629C8.20535 10.7191 7.52916 10.9756 7.1342 10.5816L4.47891 7.93299L1.22976 10.8138C0.937377 11.0731 0.493036 11.0601 0.216459 10.7841C-0.0543492 10.5141 -0.0733935 10.0825 0.172523 9.78969L2.98428 6.44216L0.673918 4.13762C0.293032 3.75766 0.516822 3.10694 1.05133 3.0403L4.79958 2.57295L6.7692 0.567377Z" fill="#BBBBBB"/>
</svg>
